^X:\BACKUP\OTHERPROGRAMMING\ATLASSIAN\MIFCHAT\EMOTICONSPARSER\EMOTICONS.CPP|X:\BACKUP\OTHERPROGRAMMING\ATLASSIAN\MIFCHAT\EMOTICONSPARSER\EMOTICONSPARSER.CPP|X:\BACKUP\OTHERPROGRAMMING\ATLASSIAN\MIFCHAT\MIFCHAT\ADDUSER.CPP|X:\BACKUP\OTHERPROGRAMMING\ATLASSIAN\MIFCHAT\MIFCHAT\CHANGEUSERNAME.CPP|X:\BACKUP\OTHERPROGRAMMING\ATLASSIAN\MIFCHAT\MIFCHAT\CHATCONTROLLER.CPP|X:\BACKUP\OTHERPROGRAMMING\ATLASSIAN\MIFCHAT\MIFCHAT\CHATUSER.CPP|X:\BACKUP\OTHERPROGRAMMING\ATLASSIAN\MIFCHAT\MIFCHAT\EMOTICONPAGE.CPP|X:\BACKUP\OTHERPROGRAMMING\ATLASSIAN\MIFCHAT\MIFCHAT\GENERATEDFILES\RELEASE\MOC_ADDUSER.CPP|X:\BACKUP\OTHERPROGRAMMING\ATLASSIAN\MIFCHAT\MIFCHAT\GENERATEDFILES\RELEASE\MOC_CHANGEUSERNAME.CPP|X:\BACKUP\OTHERPROGRAMMING\ATLASSIAN\MIFCHAT\MIFCHAT\GENERATEDFILES\RELEASE\MOC_CHATCONTROLLER.CPP|X:\BACKUP\OTHERPROGRAMMING\ATLASSIAN\MIFCHAT\MIFCHAT\GENERATEDFILES\RELEASE\MOC_EMOTICONPAGE.CPP|X:\BACKUP\OTHERPROGRAMMING\ATLASSIAN\MIFCHAT\MIFCHAT\GENERATEDFILES\RELEASE\MOC_JSONCONTROLLER.CPP|X:\BACKUP\OTHERPROGRAMMING\ATLASSIAN\MIFCHAT\MIFCHAT\GENERATEDFILES\RELEASE\MOC_MIFCHAT.CPP|X:\BACKUP\OTHERPROGRAMMING\ATLASSIAN\MIFCHAT\MIFCHAT\GENERATEDFILES\RELEASE\MOC_USERCONTROLLER.CPP|X:\BACKUP\OTHERPROGRAMMING\ATLASSIAN\MIFCHAT\MIFCHAT\GENERATEDFILES\RELEASE\MOC_WELCOMEPAGE.CPP|X:\BACKUP\OTHERPROGRAMMING\ATLASSIAN\MIFCHAT\MIFCHAT\JSONCONTROLLER.CPP|X:\BACKUP\OTHERPROGRAMMING\ATLASSIAN\MIFCHAT\MIFCHAT\MAIN.CPP|X:\BACKUP\OTHERPROGRAMMING\ATLASSIAN\MIFCHAT\MIFCHAT\MIFCHAT.CPP|X:\BACKUP\OTHERPROGRAMMING\ATLASSIAN\MIFCHAT\MIFCHAT\USERCONTROLLER.CPP|X:\BACKUP\OTHERPROGRAMMING\ATLASSIAN\MIFCHAT\MIFCHAT\WELCOMEPAGE.CPP
X:\BACKUP\OTHERPROGRAMMING\ATLASSIAN\MIFCHAT\MIFCHAT\RELEASE\WELCOMEPAGE.OBJ
X:\BACKUP\OTHERPROGRAMMING\ATLASSIAN\MIFCHAT\MIFCHAT\RELEASE\USERCONTROLLER.OBJ
X:\BACKUP\OTHERPROGRAMMING\ATLASSIAN\MIFCHAT\MIFCHAT\RELEASE\MIFCHAT.OBJ
X:\BACKUP\OTHERPROGRAMMING\ATLASSIAN\MIFCHAT\MIFCHAT\RELEASE\MAIN.OBJ
X:\BACKUP\OTHERPROGRAMMING\ATLASSIAN\MIFCHAT\MIFCHAT\RELEASE\JSONCONTROLLER.OBJ
X:\BACKUP\OTHERPROGRAMMING\ATLASSIAN\MIFCHAT\MIFCHAT\RELEASE\MOC_WELCOMEPAGE.OBJ
X:\BACKUP\OTHERPROGRAMMING\ATLASSIAN\MIFCHAT\MIFCHAT\RELEASE\MOC_USERCONTROLLER.OBJ
X:\BACKUP\OTHERPROGRAMMING\ATLASSIAN\MIFCHAT\MIFCHAT\RELEASE\MOC_MIFCHAT.OBJ
X:\BACKUP\OTHERPROGRAMMING\ATLASSIAN\MIFCHAT\MIFCHAT\RELEASE\MOC_JSONCONTROLLER.OBJ
X:\BACKUP\OTHERPROGRAMMING\ATLASSIAN\MIFCHAT\MIFCHAT\RELEASE\MOC_EMOTICONPAGE.OBJ
X:\BACKUP\OTHERPROGRAMMING\ATLASSIAN\MIFCHAT\MIFCHAT\RELEASE\MOC_CHATCONTROLLER.OBJ
X:\BACKUP\OTHERPROGRAMMING\ATLASSIAN\MIFCHAT\MIFCHAT\RELEASE\MOC_CHANGEUSERNAME.OBJ
X:\BACKUP\OTHERPROGRAMMING\ATLASSIAN\MIFCHAT\MIFCHAT\RELEASE\MOC_ADDUSER.OBJ
X:\BACKUP\OTHERPROGRAMMING\ATLASSIAN\MIFCHAT\MIFCHAT\RELEASE\EMOTICONPAGE.OBJ
X:\BACKUP\OTHERPROGRAMMING\ATLASSIAN\MIFCHAT\MIFCHAT\RELEASE\CHATUSER.OBJ
X:\BACKUP\OTHERPROGRAMMING\ATLASSIAN\MIFCHAT\MIFCHAT\RELEASE\CHATCONTROLLER.OBJ
X:\BACKUP\OTHERPROGRAMMING\ATLASSIAN\MIFCHAT\MIFCHAT\RELEASE\CHANGEUSERNAME.OBJ
X:\BACKUP\OTHERPROGRAMMING\ATLASSIAN\MIFCHAT\MIFCHAT\RELEASE\ADDUSER.OBJ
X:\BACKUP\OTHERPROGRAMMING\ATLASSIAN\MIFCHAT\MIFCHAT\RELEASE\EMOTICONSPARSER.OBJ
X:\BACKUP\OTHERPROGRAMMING\ATLASSIAN\MIFCHAT\MIFCHAT\RELEASE\EMOTICONS.OBJ
^X:\BACKUP\OTHERPROGRAMMING\ATLASSIAN\MIFCHAT\MIFCHAT\EMOTICONPAGE.CPP
X:\BACKUP\OTHERPROGRAMMING\ATLASSIAN\MIFCHAT\MIFCHAT\RELEASE\EMOTICONPAGE.OBJ
