^X:\BACKUP\OTHERPROGRAMMING\ATLASSIAN\MIFCHAT\MIFCHAT\MIFCHAT.H
X:\BACKUP\OTHERPROGRAMMING\ATLASSIAN\MIFCHAT\MIFCHAT\GENERATEDFILES\DEBUG\MOC_MIFCHAT.CPP
^X:\BACKUP\OTHERPROGRAMMING\ATLASSIAN\MIFCHAT\MIFCHAT\MIFCHAT.UI
X:\BACKUP\OTHERPROGRAMMING\ATLASSIAN\MIFCHAT\MIFCHAT\GENERATEDFILES\UI_MIFCHAT.H
^X:\BACKUP\OTHERPROGRAMMING\ATLASSIAN\MIFCHAT\MIFCHAT\CHATCONTROLLER.H
X:\BACKUP\OTHERPROGRAMMING\ATLASSIAN\MIFCHAT\MIFCHAT\GENERATEDFILES\DEBUG\MOC_CHATCONTROLLER.CPP
^X:\BACKUP\OTHERPROGRAMMING\ATLASSIAN\MIFCHAT\MIFCHAT\EMOTICONPAGE.H
X:\BACKUP\OTHERPROGRAMMING\ATLASSIAN\MIFCHAT\MIFCHAT\GENERATEDFILES\DEBUG\MOC_EMOTICONPAGE.CPP
^X:\BACKUP\OTHERPROGRAMMING\ATLASSIAN\MIFCHAT\MIFCHAT\ADDUSER.H
X:\BACKUP\OTHERPROGRAMMING\ATLASSIAN\MIFCHAT\MIFCHAT\GENERATEDFILES\DEBUG\MOC_ADDUSER.CPP
^X:\BACKUP\OTHERPROGRAMMING\ATLASSIAN\MIFCHAT\MIFCHAT\CHANGEUSERNAME.H
X:\BACKUP\OTHERPROGRAMMING\ATLASSIAN\MIFCHAT\MIFCHAT\GENERATEDFILES\DEBUG\MOC_CHANGEUSERNAME.CPP
^X:\BACKUP\OTHERPROGRAMMING\ATLASSIAN\MIFCHAT\MIFCHAT\JSONCONTROLLER.H
X:\BACKUP\OTHERPROGRAMMING\ATLASSIAN\MIFCHAT\MIFCHAT\GENERATEDFILES\DEBUG\MOC_JSONCONTROLLER.CPP
^X:\BACKUP\OTHERPROGRAMMING\ATLASSIAN\MIFCHAT\MIFCHAT\USERCONTROLLER.H
X:\BACKUP\OTHERPROGRAMMING\ATLASSIAN\MIFCHAT\MIFCHAT\GENERATEDFILES\DEBUG\MOC_USERCONTROLLER.CPP
^X:\BACKUP\OTHERPROGRAMMING\ATLASSIAN\MIFCHAT\MIFCHAT\WELCOMEPAGE.H
X:\BACKUP\OTHERPROGRAMMING\ATLASSIAN\MIFCHAT\MIFCHAT\GENERATEDFILES\DEBUG\MOC_WELCOMEPAGE.CPP
^X:\BACKUP\OTHERPROGRAMMING\ATLASSIAN\MIFCHAT\MIFCHAT\MIFCHAT.QRC
X:\BACKUP\OTHERPROGRAMMING\ATLASSIAN\MIFCHAT\MIFCHAT\GENERATEDFILES\QRC_MIFCHAT.CPP
^X:\BACKUP\OTHERPROGRAMMING\ATLASSIAN\MIFCHAT\MIFCHAT\CHATCONTROLLER.UI
X:\BACKUP\OTHERPROGRAMMING\ATLASSIAN\MIFCHAT\MIFCHAT\GENERATEDFILES\UI_CHATCONTROLLER.H
^X:\BACKUP\OTHERPROGRAMMING\ATLASSIAN\MIFCHAT\MIFCHAT\ADDUSER.UI
X:\BACKUP\OTHERPROGRAMMING\ATLASSIAN\MIFCHAT\MIFCHAT\GENERATEDFILES\UI_ADDUSER.H
^X:\BACKUP\OTHERPROGRAMMING\ATLASSIAN\MIFCHAT\MIFCHAT\CHANGEUSERNAME.UI
X:\BACKUP\OTHERPROGRAMMING\ATLASSIAN\MIFCHAT\MIFCHAT\GENERATEDFILES\UI_CHANGEUSERNAME.H
^X:\BACKUP\OTHERPROGRAMMING\ATLASSIAN\MIFCHAT\MIFCHAT\WELCOMEPAGE.UI
X:\BACKUP\OTHERPROGRAMMING\ATLASSIAN\MIFCHAT\MIFCHAT\GENERATEDFILES\UI_WELCOMEPAGE.H
^X:\BACKUP\OTHERPROGRAMMING\ATLASSIAN\MIFCHAT\MIFCHAT\USERCONTROLLER.UI
X:\BACKUP\OTHERPROGRAMMING\ATLASSIAN\MIFCHAT\MIFCHAT\GENERATEDFILES\UI_USERCONTROLLER.H
^X:\BACKUP\OTHERPROGRAMMING\ATLASSIAN\MIFCHAT\MIFCHAT\JSONCONTROLLER.UI
X:\BACKUP\OTHERPROGRAMMING\ATLASSIAN\MIFCHAT\MIFCHAT\GENERATEDFILES\UI_JSONCONTROLLER.H
^X:\BACKUP\OTHERPROGRAMMING\ATLASSIAN\MIFCHAT\MIFCHAT\EMOTICONPAGE.UI
X:\BACKUP\OTHERPROGRAMMING\ATLASSIAN\MIFCHAT\MIFCHAT\GENERATEDFILES\UI_EMOTICONPAGE.H
